Label	Class
V	2
V	2
N	0
N	0
Q	4
Q	4
V	2
V	2
V	2
V	2
N	0
V	2
N	0
S	1
V	2
V	2
F	3
F	3
Q	4
N	0
F	3
F	3
Q	4
V	2
F	3
S	1
S	1
N	0
V	2
N	0
Q	4
S	1
Q	4
F	3
S	1
S	1
F	3
N	0
S	1
N	0
F	3
S	1
F	3
S	1
Q	4
S	1
Q	4
F	3
Q	4
S	1
N	0
Q	4
N	0
S	1
F	3
V	2
S	1
Q	4
S	1
S	1
S	1
N	0
F	3
F	3
S	1
F	3
S	1
V	2
N	0
N	0
F	3
F	3
N	0
F	3
F	3
Q	4
N	0
F	3
F	3
V	2
F	3
N	0
Q	4
Q	4
S	1
S	1
N	0
V	2
Q	4
V	2
S	1
F	3
Q	4
S	1
F	3
V	2
F	3
N	0
N	0
V	2
F	3
S	1
F	3
F	3
N	0
F	3
S	1
Q	4
N	0
S	1
S	1
N	0
V	2
V	2
V	2
Q	4
S	1
V	2
V	2
Q	4
V	2
Q	4
V	2
V	2
S	1
V	2
N	0
F	3
N	0
F	3
V	2
Q	4
V	2
V	2
Q	4
S	1
V	2
Q	4
S	1
S	1
S	1
Q	4
V	2
N	0
S	1
S	1
S	1
N	0
F	3
V	2
S	1
F	3
S	1
V	2
S	1
N	0
N	0
N	0
S	1
F	3
N	0
N	0
F	3
F	3
V	2
N	0
F	3
F	3
N	0
S	1
N	0
V	2
V	2
V	2
N	0
Q	4
S	1
F	3
S	1
N	0
S	1
S	1
F	3
V	2
S	1
V	2
Q	4
V	2
S	1
S	1
N	0
Q	4
F	3
N	0
F	3
V	2
F	3
S	1
F	3
F	3
V	2
S	1
F	3
V	2
N	0
F	3
V	2
F	3
V	2
S	1
N	0
V	2
N	0
F	3
S	1
Q	4
N	0
S	1
V	2
S	1
F	3
F	3
Q	4
S	1
V	2
F	3
V	2
N	0
Q	4
F	3
N	0
N	0
N	0
N	0
F	3
V	2
N	0
F	3
V	2
S	1
Q	4
F	3
V	2
F	3
S	1
F	3
S	1
N	0
F	3
F	3
Q	4
V	2
V	2
V	2
S	1
Q	4
V	2
F	3
N	0
Q	4
V	2
S	1
V	2
Q	4
F	3
F	3
F	3
Q	4
V	2
F	3
N	0
F	3
F	3
N	0
Q	4
Q	4
V	2
Q	4
S	1
Q	4
V	2
N	0
F	3
S	1
F	3
Q	4
S	1
V	2
F	3
Q	4
Q	4
V	2
N	0
S	1
N	0
N	0
Q	4
V	2
S	1
F	3
F	3
Q	4
S	1
Q	4
Q	4
N	0
N	0
S	1
V	2
F	3
V	2
F	3
S	1
F	3
V	2
S	1
V	2
S	1
F	3
F	3
F	3
N	0
Q	4
F	3
V	2
Q	4
S	1
Q	4
V	2
N	0
S	1
Q	4
V	2
F	3
V	2
F	3
N	0
Q	4
N	0
Q	4
Q	4
N	0
F	3
V	2
V	2
Q	4
V	2
S	1
S	1
S	1
N	0
Q	4
F	3
V	2
N	0
V	2
F	3
N	0
N	0
F	3
N	0
N	0
V	2
F	3
N	0
F	3
N	0
F	3
F	3
V	2
V	2
Q	4
S	1
Q	4
V	2
Q	4
V	2
Q	4
V	2
F	3
Q	4
N	0
V	2
N	0
V	2
V	2
V	2
S	1
V	2
V	2
F	3
N	0
N	0
S	1
V	2
V	2
Q	4
S	1
V	2
V	2
Q	4
N	0
S	1
F	3
S	1
N	0
V	2
N	0
S	1
Q	4
F	3
Q	4
S	1
S	1
F	3
Q	4
S	1
S	1
Q	4
S	1
V	2
F	3
Q	4
F	3
V	2
F	3
S	1
S	1
Q	4
N	0
F	3
Q	4
S	1
F	3
V	2
F	3
Q	4
V	2
Q	4
Q	4
N	0
F	3
V	2
V	2
S	1
Q	4
Q	4
F	3
N	0
N	0
N	0
S	1
N	0
F	3
Q	4
N	0
F	3
N	0
F	3
Q	4
S	1
Q	4
V	2
F	3
N	0
S	1
V	2
S	1
S	1
N	0
N	0
Q	4
Q	4
Q	4
N	0
N	0
F	3
N	0
Q	4
Q	4
N	0
F	3
S	1
F	3
V	2
S	1
Q	4
F	3
S	1
V	2
F	3
S	1
Q	4
F	3
N	0
N	0
V	2
S	1
Q	4
S	1
V	2
N	0
F	3
V	2
Q	4
Q	4
S	1
S	1
F	3
Q	4
V	2
V	2
Q	4
N	0
Q	4
Q	4
S	1
F	3
F	3
F	3
N	0
S	1
F	3
F	3
S	1
N	0
N	0
V	2
S	1
F	3
F	3
S	1
V	2
S	1
S	1
V	2
S	1
Q	4
V	2
F	3
N	0
F	3
V	2
S	1
S	1
S	1
S	1
V	2
F	3
V	2
V	2
Q	4
Q	4
S	1
Q	4
V	2
Q	4
F	3
Q	4
F	3
V	2
S	1
F	3
F	3
Q	4
N	0
F	3
V	2
S	1
F	3
F	3
S	1
N	0
S	1
S	1
N	0
F	3
Q	4
N	0
Q	4
F	3
Q	4
N	0
N	0
V	2
V	2
F	3
F	3
V	2
N	0
Q	4
S	1
V	2
N	0
F	3
V	2
Q	4
F	3
Q	4
V	2
S	1
N	0
S	1
V	2
S	1
S	1
N	0
N	0
N	0
N	0
V	2
Q	4
V	2
S	1
F	3
N	0
F	3
Q	4
F	3
F	3
N	0
F	3
V	2
F	3
Q	4
N	0
S	1
N	0
N	0
Q	4
N	0
N	0
F	3
F	3
N	0
F	3
V	2
S	1
S	1
Q	4
V	2
N	0
Q	4
N	0
V	2
S	1
F	3
N	0
N	0
Q	4
S	1
N	0
V	2
S	1
S	1
V	2
F	3
N	0
F	3
Q	4
S	1
F	3
V	2
V	2
V	2
Q	4
F	3
N	0
S	1
V	2
N	0
V	2
N	0
S	1
N	0
S	1
Q	4
S	1
V	2
F	3
S	1
S	1
S	1
N	0
S	1
S	1
N	0
Q	4
S	1
F	3
F	3
S	1
Q	4
V	2
F	3
Q	4
F	3
V	2
N	0
V	2
S	1
F	3
Q	4
V	2
F	3
N	0
N	0
V	2
S	1
V	2
F	3
S	1
F	3
V	2
Q	4
N	0
S	1
Q	4
N	0
N	0
V	2
F	3
V	2
F	3
Q	4
V	2
N	0
F	3
S	1
N	0
F	3
S	1
N	0
V	2
Q	4
F	3
V	2
N	0
F	3
V	2
S	1
N	0
V	2
Q	4
S	1
Q	4
N	0
Q	4
F	3
N	0
V	2
S	1
N	0
Q	4
S	1
F	3
F	3
V	2
S	1
F	3
S	1
Q	4
N	0
V	2
N	0
S	1
S	1
N	0
Q	4
N	0
S	1
F	3
V	2
V	2
V	2
S	1
F	3
V	2
S	1
V	2
F	3
N	0
Q	4
S	1
V	2
Q	4
V	2
V	2
V	2
Q	4
V	2
Q	4
F	3
V	2
V	2
N	0
Q	4
V	2
Q	4
V	2
S	1
S	1
F	3
V	2
S	1
S	1
N	0
V	2
N	0
F	3
N	0
N	0
S	1
S	1
Q	4
V	2
Q	4
N	0
S	1
N	0
N	0
F	3
V	2
V	2
V	2
F	3
F	3
V	2
V	2
S	1
Q	4
N	0
S	1
N	0
S	1
V	2
F	3
F	3
N	0
F	3
Q	4
N	0
V	2
F	3
S	1
S	1
Q	4
F	3
V	2
S	1
N	0
F	3
V	2
V	2
V	2
F	3
V	2
F	3
Q	4
Q	4
Q	4
N	0
F	3
F	3
F	3
V	2
S	1
Q	4
V	2
Q	4
S	1
Q	4
F	3
S	1
F	3
N	0
S	1
Q	4
F	3
S	1
S	1
V	2
S	1
V	2
S	1
V	2
N	0
F	3
S	1
F	3
V	2
V	2
F	3
V	2
Q	4
N	0
F	3
S	1
F	3
Q	4
S	1
V	2
V	2
N	0
N	0
Q	4
F	3
F	3
F	3
F	3
N	0
F	3
N	0
F	3
V	2
N	0
V	2
Q	4
F	3
N	0
V	2
S	1
Q	4
V	2
V	2
S	1
V	2
Q	4
V	2
Q	4
S	1
F	3
V	2
V	2
F	3
Q	4
Q	4
S	1
S	1
V	2
V	2
S	1
Q	4
Q	4
Q	4
V	2
S	1
N	0
S	1
V	2
F	3
V	2
Q	4
Q	4
Q	4
V	2
Q	4
Q	4
N	0
Q	4
F	3
N	0
N	0
Q	4
V	2
F	3
N	0
Q	4
S	1
S	1
V	2
F	3
V	2
N	0
N	0
Q	4
Q	4
S	1
V	2
N	0
S	1
Q	4
N	0
V	2
Q	4
F	3
Q	4
F	3
S	1
S	1
N	0
V	2
V	2
V	2
F	3
N	0
S	1
F	3
N	0
F	3
Q	4
Q	4
N	0
V	2
Q	4
F	3
V	2
Q	4
N	0
V	2
F	3
F	3
S	1
F	3
V	2
N	0
F	3
Q	4
Q	4
N	0
F	3
V	2
V	2
S	1
V	2
N	0
N	0
Q	4
Q	4
S	1
S	1
S	1
N	0
V	2
S	1
S	1
N	0
V	2
Q	4
F	3
F	3
F	3
Q	4
S	1
V	2
F	3
Q	4
N	0
N	0
N	0
N	0
N	0
Q	4
S	1
S	1
V	2
S	1
Q	4
N	0
F	3
Q	4
V	2
N	0
F	3
S	1
F	3
F	3
F	3
F	3
V	2
N	0
N	0
F	3
S	1
S	1
Q	4
F	3
Q	4
F	3
F	3
N	0
S	1
S	1
N	0
Q	4
N	0
Q	4
Q	4
F	3
V	2
N	0
S	1
V	2
Q	4
N	0
F	3
N	0
Q	4
Q	4
F	3
F	3
V	2
F	3
N	0
V	2
V	2
S	1
F	3
Q	4
N	0
F	3
N	0
Q	4
Q	4
Q	4
Q	4
V	2
F	3
Q	4
F	3
S	1
Q	4
N	0
N	0
S	1
S	1
Q	4
Q	4
F	3
S	1
Q	4
N	0
V	2
V	2
S	1
S	1
F	3
Q	4
F	3
F	3
F	3
Q	4
Q	4
N	0
N	0
N	0
F	3
F	3
F	3
N	0
Q	4
S	1
N	0
V	2
S	1
Q	4
F	3
Q	4
F	3
F	3
V	2
S	1
N	0
N	0
F	3
V	2
V	2
N	0
N	0
V	2
V	2
V	2
Q	4
Q	4
Q	4
Q	4
V	2
V	2
N	0
V	2
F	3
Q	4
N	0
V	2
Q	4
N	0
S	1
N	0
Q	4
S	1
S	1
F	3
N	0
F	3
S	1
N	0
N	0
Q	4
S	1
V	2
Q	4
V	2
F	3
S	1
F	3
N	0
N	0
Q	4
N	0
S	1
V	2
S	1
V	2
N	0
S	1
F	3
V	2
N	0
Q	4
N	0
S	1
V	2
S	1
F	3
S	1
N	0
N	0
Q	4
V	2
S	1
Q	4
F	3
S	1
S	1
V	2
V	2
N	0
V	2
Q	4
N	0
N	0
S	1
V	2
S	1
N	0
S	1
N	0
S	1
S	1
N	0
V	2
V	2
Q	4
Q	4
F	3
N	0
V	2
S	1
V	2
N	0
N	0
Q	4
Q	4
Q	4
Q	4
Q	4
N	0
N	0
N	0
N	0
Q	4
V	2
F	3
V	2
Q	4
V	2
Q	4
Q	4
F	3
N	0
F	3
Q	4
S	1
Q	4
V	2
S	1
N	0
Q	4
S	1
V	2
F	3
S	1
F	3
S	1
V	2
S	1
N	0
N	0
S	1
F	3
Q	4
S	1
N	0
Q	4
Q	4
S	1
N	0
F	3
V	2
Q	4
S	1
Q	4
F	3
N	0
N	0
V	2
S	1
Q	4
V	2
S	1
Q	4
V	2
F	3
F	3
F	3
V	2
Q	4
Q	4
S	1
N	0
Q	4
F	3
Q	4
V	2
S	1
F	3
V	2
F	3
S	1
Q	4
V	2
Q	4
F	3
F	3
F	3
V	2
F	3
S	1
F	3
S	1
N	0
S	1
Q	4
V	2
Q	4
S	1
S	1
N	0
N	0
Q	4
N	0
V	2
Q	4
F	3
V	2
N	0
S	1
S	1
V	2
F	3
V	2
S	1
F	3
Q	4
S	1
Q	4
V	2
Q	4
Q	4
V	2
Q	4
N	0
N	0
N	0
F	3
Q	4
V	2
N	0
F	3
F	3
V	2
V	2
V	2
F	3
V	2
F	3
F	3
Q	4
S	1
Q	4
S	1
V	2
F	3
N	0
S	1
N	0
S	1
V	2
F	3
N	0
S	1
Q	4
V	2
V	2
S	1
F	3
Q	4
V	2
V	2
F	3
N	0
N	0
Q	4
Q	4
Q	4
N	0
N	0
Q	4
N	0
N	0
Q	4
F	3
F	3
V	2
Q	4
Q	4
Q	4
N	0
F	3
F	3
V	2
S	1
V	2
S	1
V	2
N	0
S	1
N	0
F	3
F	3
S	1
Q	4
V	2
S	1
F	3
S	1
N	0
N	0
V	2
N	0
S	1
V	2
N	0
Q	4
N	0
Q	4
F	3
V	2
F	3
Q	4
F	3
V	2
S	1
S	1
F	3
F	3
N	0
N	0
Q	4
Q	4
V	2
Q	4
N	0
F	3
S	1
V	2
N	0
F	3
V	2
N	0
Q	4
Q	4
S	1
F	3
V	2
V	2
F	3
N	0
V	2
V	2
V	2
V	2
Q	4
V	2
V	2
N	0
N	0
V	2
F	3
N	0
S	1
Q	4
N	0
F	3
N	0
F	3
Q	4
S	1
S	1
F	3
F	3
N	0
V	2
S	1
Q	4
Q	4
Q	4
N	0
S	1
S	1
N	0
S	1
S	1
V	2
S	1
F	3
Q	4
V	2
F	3
Q	4
Q	4
F	3
Q	4
S	1
Q	4
N	0
S	1
Q	4
F	3
Q	4
N	0
F	3
Q	4
S	1
F	3
N	0
N	0
S	1
S	1
S	1
N	0
N	0
V	2
V	2
N	0
V	2
V	2
V	2
V	2
V	2
S	1
S	1
V	2
S	1
S	1
N	0
S	1
F	3
N	0
Q	4
N	0
N	0
N	0
Q	4
Q	4
N	0
F	3
F	3
V	2
Q	4
S	1
N	0
Q	4
N	0
F	3
V	2
S	1
S	1
F	3
S	1
F	3
S	1
S	1
V	2
Q	4
V	2
F	3
V	2
V	2
V	2
S	1
Q	4
S	1
S	1
S	1
F	3
V	2
N	0
N	0
V	2
S	1
Q	4
V	2
Q	4
F	3
N	0
V	2
F	3
S	1
S	1
V	2
Q	4
Q	4
V	2
N	0
Q	4
V	2
S	1
N	0
N	0
Q	4
V	2
Q	4
F	3
S	1
F	3
N	0
S	1
F	3
S	1
F	3
S	1
F	3
N	0
S	1
S	1
S	1
F	3
N	0
N	0
F	3
F	3
F	3
V	2
F	3
F	3
F	3
N	0
S	1
Q	4
F	3
Q	4
N	0
Q	4
V	2
F	3
V	2
Q	4
S	1
S	1
S	1
V	2
V	2
V	2
V	2
F	3
Q	4
F	3
F	3
S	1
S	1
S	1
V	2
S	1
Q	4
F	3
F	3
S	1
Q	4
F	3
F	3
N	0
V	2
F	3
V	2
S	1
N	0
S	1
F	3
N	0
N	0
S	1
N	0
Q	4
F	3
V	2
N	0
V	2
V	2
Q	4
S	1
F	3
V	2
V	2
V	2
S	1
N	0
S	1
N	0
F	3
V	2
S	1
F	3
Q	4
N	0
V	2
Q	4
V	2
F	3
S	1
S	1
N	0
F	3
V	2
F	3
V	2
Q	4
F	3
Q	4
S	1
Q	4
V	2
N	0
Q	4
Q	4
S	1
N	0
N	0
N	0
F	3
F	3
N	0
Q	4
S	1
N	0
N	0
N	0
N	0
S	1
Q	4
S	1
F	3
V	2
N	0
S	1
V	2
V	2
Q	4
F	3
S	1
N	0
N	0
Q	4
S	1
F	3
N	0
F	3
V	2
V	2
Q	4
N	0
Q	4
V	2
N	0
S	1
V	2
F	3
Q	4
F	3
S	1
V	2
N	0
Q	4
S	1
Q	4
S	1
V	2
Q	4
S	1
Q	4
V	2
Q	4
Q	4
F	3
N	0
V	2
S	1
V	2
Q	4
F	3
N	0
F	3
N	0
Q	4
S	1
F	3
V	2
F	3
F	3
Q	4
V	2
Q	4
V	2
V	2
V	2
N	0
S	1
N	0
S	1
Q	4
F	3
N	0
S	1
V	2
Q	4
F	3
Q	4
Q	4
F	3
V	2
F	3
V	2
F	3
S	1
F	3
V	2
F	3
S	1
N	0
V	2
S	1
N	0
S	1
N	0
F	3
N	0
F	3
N	0
N	0
V	2
N	0
N	0
V	2
S	1
F	3
S	1
Q	4
Q	4
N	0
F	3
N	0
N	0
V	2
S	1
V	2
N	0
Q	4
S	1
N	0
N	0
V	2
Q	4
V	2
Q	4
F	3
N	0
N	0
F	3
Q	4
F	3
F	3
N	0
V	2
Q	4
S	1
S	1
Q	4
Q	4
Q	4
Q	4
Q	4
F	3
Q	4
F	3
V	2
S	1
S	1
S	1
Q	4
F	3
N	0
F	3
S	1
V	2
N	0
S	1
V	2
N	0
V	2
V	2
Q	4
Q	4
F	3
S	1
S	1
Q	4
V	2
S	1
F	3
S	1
N	0
Q	4
N	0
F	3
F	3
Q	4
Q	4
Q	4
N	0
V	2
F	3
S	1
V	2
S	1
N	0
F	3
V	2
Q	4
Q	4
V	2
S	1
F	3
Q	4
V	2
F	3
F	3
F	3
Q	4
N	0
Q	4
N	0
F	3
S	1
S	1
F	3
N	0
F	3
Q	4
S	1
S	1
V	2
N	0
S	1
N	0
Q	4
S	1
N	0
N	0
N	0
N	0
V	2
N	0
S	1
Q	4
S	1
F	3
N	0
V	2
F	3
V	2
F	3
S	1
F	3
N	0
F	3
Q	4
S	1
F	3
Q	4
Q	4
S	1
Q	4
V	2
V	2
V	2
Q	4
F	3
F	3
N	0
N	0
S	1
F	3
N	0
V	2
F	3
S	1
V	2
F	3
S	1
F	3
F	3
N	0
N	0
Q	4
Q	4
F	3
Q	4
F	3
Q	4
V	2
S	1
V	2
F	3
Q	4
S	1
F	3
N	0
F	3
F	3
Q	4
N	0
V	2
F	3
V	2
V	2
Q	4
S	1
S	1
N	0
Q	4
F	3
F	3
N	0
V	2
S	1
F	3
F	3
Q	4
F	3
F	3
Q	4
F	3
N	0
N	0
V	2
F	3
V	2
N	0
Q	4
F	3
N	0
Q	4
F	3
Q	4
N	0
Q	4
V	2
Q	4
F	3
Q	4
Q	4
S	1
N	0
Q	4
V	2
V	2
N	0
V	2
N	0
Q	4
N	0
F	3
Q	4
N	0
N	0
N	0
S	1
N	0
S	1
F	3
F	3
N	0
Q	4
V	2
S	1
N	0
Q	4
F	3
V	2
V	2
F	3
S	1
S	1
N	0
F	3
V	2
F	3
Q	4
V	2
F	3
Q	4
N	0
V	2
Q	4
F	3
V	2
N	0
S	1
S	1
F	3
Q	4
N	0
N	0
F	3
S	1
F	3
S	1
S	1
Q	4
Q	4
N	0
S	1
F	3
V	2
S	1
S	1
S	1
N	0
F	3
F	3
N	0
S	1
S	1
N	0
Q	4
N	0
V	2
V	2
Q	4
V	2
Q	4
F	3
S	1
F	3
S	1
S	1
S	1
S	1
F	3
F	3
S	1
F	3
V	2
N	0
S	1
N	0
Q	4
S	1
S	1
Q	4
Q	4
S	1
V	2
S	1
V	2
V	2
N	0
Q	4
S	1
S	1
Q	4
N	0
V	2
F	3
N	0
Q	4
V	2
S	1
Q	4
Q	4
Q	4
S	1
F	3
Q	4
V	2
N	0
S	1
F	3
F	3
S	1
V	2
N	0
S	1
V	2
Q	4
V	2
N	0
F	3
N	0
Q	4
S	1
V	2
F	3
N	0
V	2
V	2
V	2
S	1
S	1
F	3
N	0
N	0
N	0
S	1
N	0
Q	4
Q	4
F	3
S	1
Q	4
S	1
N	0
N	0
S	1
Q	4
S	1
N	0
V	2
N	0
S	1
N	0
Q	4
N	0
N	0
S	1
F	3
V	2
F	3
F	3
S	1
V	2
V	2
Q	4
N	0
Q	4
S	1
V	2
N	0
N	0
S	1
N	0
S	1
Q	4
Q	4
F	3
F	3
N	0
V	2
N	0
F	3
F	3
Q	4
N	0
N	0
V	2
S	1
F	3
S	1
F	3
Q	4
N	0
V	2
Q	4
V	2
V	2
V	2
Q	4
S	1
S	1
V	2
Q	4
S	1
V	2
S	1
F	3
S	1
Q	4
N	0
Q	4
F	3
S	1
N	0
Q	4
F	3
F	3
F	3
V	2
N	0
N	0
Q	4
N	0
S	1
V	2
V	2
Q	4
V	2
Q	4
Q	4
S	1
V	2
F	3
F	3
F	3
S	1
V	2
Q	4
N	0
Q	4
Q	4
F	3
S	1
F	3
V	2
F	3
V	2
V	2
S	1
V	2
F	3
Q	4
N	0
N	0
S	1
N	0
V	2
V	2
F	3
Q	4
F	3
S	1
S	1
F	3
V	2
F	3
V	2
V	2
Q	4
Q	4
Q	4
V	2
S	1
Q	4
V	2
N	0
Q	4
F	3
N	0
F	3
N	0
N	0
V	2
N	0
Q	4
Q	4
Q	4
N	0
F	3
Q	4
Q	4
Q	4
N	0
S	1
Q	4
N	0
F	3
N	0
Q	4
S	1
F	3
N	0
Q	4
V	2
S	1
N	0
V	2
N	0
V	2
N	0
N	0
V	2
F	3
N	0
S	1
V	2
Q	4
V	2
N	0
V	2
S	1
F	3
V	2
F	3
S	1
F	3
V	2
N	0
N	0
S	1
N	0
S	1
F	3
F	3
S	1
S	1
F	3
V	2
Q	4
Q	4
S	1
N	0
S	1
Q	4
V	2
N	0
V	2
N	0
S	1
V	2
Q	4
N	0
N	0
F	3
F	3
Q	4
S	1
S	1
N	0
N	0
N	0
N	0
Q	4
Q	4
F	3
V	2
N	0
N	0
Q	4
N	0
N	0
F	3
V	2
Q	4
S	1
V	2
N	0
V	2
Q	4
Q	4
Q	4
F	3
Q	4
F	3
N	0
N	0
S	1
V	2
N	0
Q	4
Q	4
S	1
F	3
F	3
Q	4
N	0
N	0
F	3
F	3
V	2
V	2
S	1
N	0
Q	4
F	3
Q	4
Q	4
F	3
N	0
N	0
F	3
V	2
F	3
S	1
S	1
N	0
N	0
Q	4
S	1
F	3
Q	4
V	2
S	1
V	2
S	1
Q	4
V	2
S	1
F	3
S	1
V	2
N	0
S	1
F	3
F	3
V	2
F	3
S	1
S	1
V	2
F	3
V	2
N	0
S	1
V	2
V	2
S	1
Q	4
F	3
F	3
F	3
N	0
N	0
S	1
N	0
F	3
N	0
N	0
Q	4
V	2
V	2
F	3
N	0
Q	4
V	2
F	3
F	3
F	3
N	0
N	0
F	3
N	0
V	2
S	1
F	3
V	2
S	1
S	1
S	1
Q	4
Q	4
F	3
N	0
V	2
V	2
N	0
Q	4
V	2
S	1
V	2
F	3
Q	4
F	3
Q	4
Q	4
V	2
V	2
Q	4
F	3
Q	4
F	3
Q	4
Q	4
N	0
N	0
V	2
N	0
N	0
Q	4
S	1
N	0
F	3
S	1
V	2
S	1
V	2
Q	4
Q	4
S	1
F	3
V	2
N	0
F	3
Q	4
F	3
F	3
S	1
N	0
S	1
N	0
V	2
F	3
V	2
S	1
N	0
V	2
S	1
N	0
V	2
Q	4
S	1
V	2
Q	4
S	1
N	0
N	0
S	1
Q	4
V	2
S	1
F	3
Q	4
Q	4
F	3
S	1
F	3
F	3
Q	4
F	3
Q	4
Q	4
Q	4
Q	4
F	3
F	3
Q	4
Q	4
S	1
S	1
Q	4
V	2
Q	4
S	1
F	3
N	0
Q	4
N	0
V	2
F	3
N	0
Q	4
F	3
S	1
N	0
S	1
Q	4
F	3
F	3
S	1
N	0
V	2
N	0
S	1
S	1
S	1
V	2
V	2
S	1
N	0
F	3
N	0
Q	4
F	3
N	0
V	2
Q	4
F	3
F	3
F	3
S	1
F	3
N	0
V	2
F	3
S	1
S	1
N	0
V	2
N	0
S	1
S	1
F	3
Q	4
Q	4
N	0
S	1
S	1
Q	4
N	0
V	2
N	0
N	0
V	2
F	3
Q	4
Q	4
S	1
V	2
N	0
V	2
Q	4
F	3
V	2
S	1
V	2
V	2
Q	4
F	3
V	2
Q	4
V	2
N	0
Q	4
Q	4
Q	4
V	2
S	1
F	3
Q	4
S	1
Q	4
N	0
F	3
N	0
F	3
V	2
Q	4
Q	4
F	3
N	0
Q	4
Q	4
N	0
V	2
V	2
Q	4
F	3
S	1
Q	4
S	1
S	1
F	3
F	3
V	2
F	3
S	1
S	1
V	2
V	2
F	3
S	1
Q	4
Q	4
S	1
Q	4
N	0
F	3
N	0
S	1
N	0
V	2
Q	4
Q	4
F	3
F	3
V	2
F	3
S	1
V	2
V	2
N	0
V	2
V	2
F	3
Q	4
S	1
F	3
V	2
N	0
V	2
S	1
V	2
V	2
S	1
V	2
Q	4
F	3
F	3
Q	4
N	0
V	2
Q	4
F	3
S	1
F	3
V	2
S	1
V	2
N	0
N	0
Q	4
Q	4
F	3
V	2
N	0
F	3
Q	4
F	3
N	0
S	1
N	0
F	3
S	1
F	3
N	0
F	3
N	0
Q	4
S	1
S	1
N	0
S	1
Q	4
F	3
N	0
Q	4
V	2
Q	4
V	2
Q	4
Q	4
F	3
V	2
N	0
V	2
Q	4
Q	4
F	3
V	2
S	1
Q	4
V	2
N	0
S	1
S	1
V	2
V	2
Q	4
S	1
F	3
S	1
N	0
N	0
S	1
Q	4
S	1
F	3
V	2
N	0
N	0
V	2
S	1
Q	4
S	1
N	0
S	1
N	0
N	0
S	1
S	1
S	1
N	0
V	2
V	2
Q	4
Q	4
V	2
S	1
Q	4
N	0
S	1
S	1
Q	4
Q	4
S	1
Q	4
V	2
V	2
Q	4
V	2
S	1
Q	4
V	2
Q	4
V	2
F	3
N	0
N	0
V	2
S	1
Q	4
N	0
F	3
F	3
N	0
V	2
F	3
V	2
N	0
S	1
Q	4
S	1
V	2
Q	4
F	3
Q	4
F	3
F	3
Q	4
V	2
Q	4
N	0
S	1
F	3
F	3
F	3
V	2
N	0
F	3
N	0
N	0
N	0
S	1
Q	4
V	2
N	0
F	3
S	1
S	1
Q	4
S	1
N	0
F	3
V	2
F	3
V	2
S	1
N	0
F	3
S	1
S	1
N	0
Q	4
Q	4
S	1
N	0
Q	4
S	1
V	2
N	0
V	2
S	1
Q	4
N	0
V	2
S	1
F	3
V	2
Q	4
Q	4
F	3
F	3
Q	4
N	0
S	1
V	2
S	1
F	3
S	1
N	0
S	1
V	2
Q	4
Q	4
F	3
Q	4
N	0
V	2
Q	4
N	0
S	1
S	1
Q	4
S	1
F	3
V	2
N	0
N	0
F	3
S	1
V	2
F	3
Q	4
F	3
S	1
Q	4
N	0
F	3
F	3
S	1
F	3
S	1
N	0
S	1
Q	4
S	1
N	0
Q	4
N	0
S	1
Q	4
F	3
S	1
S	1
V	2
Q	4
V	2
F	3
N	0
V	2
Q	4
F	3
S	1
V	2
V	2
Q	4
N	0
S	1
V	2
V	2
Q	4
S	1
N	0
Q	4
Q	4
V	2
Q	4
N	0
Q	4
S	1
S	1
Q	4
V	2
N	0
S	1
Q	4
N	0
V	2
N	0
N	0
V	2
S	1
N	0
F	3
V	2
N	0
S	1
N	0
V	2
Q	4
Q	4
Q	4
F	3
S	1
N	0
F	3
Q	4
S	1
V	2
V	2
S	1
V	2
F	3
F	3
V	2
V	2
V	2
V	2
N	0
Q	4
N	0
V	2
S	1
S	1
Q	4
N	0
S	1
S	1
N	0
F	3
S	1
F	3
N	0
F	3
S	1
V	2
S	1
S	1
Q	4
N	0
N	0
F	3
N	0
N	0
Q	4
V	2
S	1
F	3
Q	4
S	1
N	0
N	0
V	2
F	3
S	1
Q	4
N	0
V	2
F	3
S	1
V	2
Q	4
F	3
N	0
N	0
N	0
F	3
F	3
Q	4
N	0
Q	4
Q	4
S	1
F	3
S	1
S	1
N	0
Q	4
Q	4
S	1
Q	4
N	0
Q	4
Q	4
F	3
Q	4
Q	4
S	1
S	1
N	0
S	1
V	2
N	0
S	1
Q	4
Q	4
N	0
S	1
Q	4
S	1
F	3
V	2
Q	4
V	2
Q	4
Q	4
S	1
Q	4
F	3
V	2
S	1
N	0
V	2
Q	4
S	1
Q	4
N	0
F	3
V	2
F	3
N	0
N	0
V	2
S	1
Q	4
Q	4
N	0
F	3
F	3
F	3
N	0
S	1
N	0
Q	4
F	3
F	3
Q	4
Q	4
F	3
N	0
N	0
Q	4
Q	4
V	2
V	2
F	3
S	1
S	1
V	2
Q	4
Q	4
F	3
V	2
S	1
F	3
Q	4
Q	4
N	0
Q	4
N	0
N	0
S	1
Q	4
N	0
V	2
V	2
N	0
S	1
N	0
N	0
N	0
Q	4
V	2
S	1
S	1
Q	4
Q	4
F	3
S	1
Q	4
S	1
F	3
V	2
V	2
S	1
Q	4
V	2
F	3
Q	4
N	0
Q	4
S	1
N	0
S	1
F	3
N	0
Q	4
F	3
F	3
F	3
N	0
N	0
S	1
N	0
S	1
S	1
N	0
S	1
V	2
F	3
S	1
N	0
V	2
N	0
S	1
Q	4
V	2
V	2
Q	4
Q	4
N	0
Q	4
S	1
Q	4
Q	4
Q	4
N	0
Q	4
F	3
V	2
N	0
Q	4
V	2
V	2
V	2
Q	4
Q	4
N	0
Q	4
S	1
S	1
S	1
S	1
F	3
S	1
Q	4
N	0
S	1
Q	4
N	0
S	1
F	3
S	1
Q	4
S	1
F	3
Q	4
V	2
S	1
Q	4
N	0
V	2
N	0
N	0
S	1
V	2
Q	4
S	1
S	1
V	2
Q	4
V	2
V	2
Q	4
Q	4
F	3
N	0
S	1
V	2
V	2
S	1
F	3
Q	4
S	1
F	3
V	2
V	2
S	1
F	3
V	2
Q	4
N	0
V	2
N	0
V	2
V	2
S	1
F	3
V	2
S	1
Q	4
N	0
Q	4
Q	4
Q	4
F	3
N	0
N	0
N	0
Q	4
Q	4
F	3
S	1
F	3
F	3
N	0
S	1
Q	4
F	3
N	0
V	2
F	3
Q	4
N	0
S	1
Q	4
F	3
N	0
N	0
S	1
V	2
S	1
S	1
Q	4
F	3
V	2
S	1
N	0
N	0
N	0
V	2
F	3
V	2
Q	4
N	0
Q	4
F	3
N	0
V	2
F	3
V	2
V	2
Q	4
F	3
V	2
N	0
F	3
F	3
N	0
V	2
Q	4
Q	4
F	3
S	1
Q	4
F	3
Q	4
S	1
F	3
F	3
Q	4
S	1
N	0
V	2
S	1
N	0
V	2
S	1
Q	4
Q	4
Q	4
S	1
Q	4
N	0
V	2
N	0
V	2
Q	4
Q	4
F	3
N	0
V	2
N	0
S	1
S	1
S	1
Q	4
N	0
N	0
Q	4
S	1
S	1
Q	4
S	1
V	2
Q	4
V	2
V	2
N	0
Q	4
N	0
Q	4
V	2
N	0
F	3
F	3
F	3
N	0
N	0
S	1
V	2
V	2
Q	4
N	0
S	1
F	3
F	3
V	2
N	0
S	1
N	0
S	1
S	1
N	0
V	2
V	2
N	0
V	2
N	0
V	2
N	0
S	1
N	0
N	0
F	3
F	3
S	1
Q	4
S	1
Q	4
V	2
V	2
V	2
Q	4
N	0
V	2
Q	4
N	0
N	0
S	1
V	2
F	3
V	2
N	0
V	2
Q	4
F	3
V	2
N	0
S	1
F	3
V	2
V	2
V	2
Q	4
N	0
F	3
V	2
S	1
S	1
V	2
V	2
S	1
V	2
V	2
Q	4
F	3
S	1
F	3
Q	4
V	2
Q	4
N	0
V	2
V	2
F	3
F	3
V	2
F	3
S	1
Q	4
Q	4
V	2
V	2
S	1
Q	4
N	0
F	3
Q	4
S	1
S	1
F	3
V	2
S	1
F	3
F	3
F	3
V	2
N	0
F	3
Q	4
F	3
F	3
Q	4
V	2
N	0
V	2
F	3
N	0
N	0
Q	4
F	3
F	3
Q	4
S	1
Q	4
V	2
Q	4
F	3
Q	4
S	1
N	0
N	0
F	3
Q	4
V	2
N	0
F	3
S	1
N	0
N	0
S	1
N	0
S	1
F	3
F	3
S	1
S	1
V	2
Q	4
Q	4
F	3
V	2
F	3
F	3
V	2
F	3
F	3
N	0
S	1
Q	4
F	3
Q	4
F	3
V	2
S	1
S	1
N	0
Q	4
N	0
V	2
S	1
F	3
F	3
F	3
V	2
N	0
F	3
V	2
Q	4
N	0
V	2
V	2
S	1
F	3
V	2
S	1
S	1
S	1
Q	4
V	2
Q	4
S	1
S	1
V	2
N	0
F	3
F	3
F	3
V	2
Q	4
S	1
N	0
S	1
F	3
V	2
V	2
S	1
N	0
S	1
V	2
F	3
Q	4
Q	4
F	3
F	3
Q	4
F	3
V	2
Q	4
Q	4
F	3
